48169c6b-3cff-4348-925d-17f8e5a1c48a	455b6b4f-a003-4056-89bc-e6927dfc93db	b361a10d-6247-48d2-a71d-fd6ef32eb656	\N	\N	2017-07-20 03:56:13.974374	initial commit!
6d9b855f-732e-4e8f-bf9f-814d4d92502c	455b6b4f-a003-4056-89bc-e6927dfc93db	d6b64a82-0c63-4991-99e8-2819395107a8	\N	48169c6b-3cff-4348-925d-17f8e5a1c48a	2017-07-20 05:48:19.771427	stuff on the screen!
83d2248b-3867-46b0-9a6c-ff996db7570b	455b6b4f-a003-4056-89bc-e6927dfc93db	2a848867-4e84-48cb-a0b7-16dab2a7a193	\N	6d9b855f-732e-4e8f-bf9f-814d4d92502c	2017-07-20 05:48:41.70931	missed one
5f5ff4a9-0c80-4ffc-a5b2-1eabd06d7102	455b6b4f-a003-4056-89bc-e6927dfc93db	99e59747-b019-4c85-80a4-f36dd7d10a6e	\N	83d2248b-3867-46b0-9a6c-ff996db7570b	2017-07-20 06:40:41.880833	game setup stage
301d3d8e-6067-4097-ab1a-7078a7e4cba6	455b6b4f-a003-4056-89bc-e6927dfc93db	23f98713-f9e3-443f-a986-7e52c49e8014	\N	5f5ff4a9-0c80-4ffc-a5b2-1eabd06d7102	2017-07-20 20:16:00.207139	Hi
82181635-1497-4660-ae07-d72509b9f3a8	455b6b4f-a003-4056-89bc-e6927dfc93db	14a3adfc-19fd-40c6-9971-52e0ba5e1e48	\N	301d3d8e-6067-4097-ab1a-7078a7e4cba6	2017-08-15 22:49:12.995042	not sure
