c127d826-4a57-447e-9065-48ffcc0d45cd	b361a10d-6247-48d2-a71d-fd6ef32eb656	("(""(""""(endpoint)"""",resource)"",id)",9ed513fd-3078-4363-ac0d-d3c1b54b9918)
b9c60ce1-c866-489f-b2a6-4912d5c4347e	d6b64a82-0c63-4991-99e8-2819395107a8	("(""(""""(endpoint)"""",resource)"",id)",9ed513fd-3078-4363-ac0d-d3c1b54b9918)
6ada595d-ea3e-48a7-9c46-8d1d7a0b27f8	d6b64a82-0c63-4991-99e8-2819395107a8	("(""(""""(widget)"""",widget)"",id)",3998ae5b-6c23-4ea3-959f-e0eb3c3e8cda)
a1bce9ce-72a1-4449-b739-4aeb12799c1c	d6b64a82-0c63-4991-99e8-2819395107a8	("(""(""""(widget)"""",widget)"",id)",70239d80-cd33-4dc7-94d2-ec6d603d5b26)
178ce7b2-e9a4-4d6b-b342-b9b486fc132c	d6b64a82-0c63-4991-99e8-2819395107a8	("(""(""""(widget)"""",widget)"",id)",c7f79427-7f81-4b25-a25f-b58d37d5e2ce)
860b6212-dcb7-43b1-b7c9-3d4dd3aa3cc4	d6b64a82-0c63-4991-99e8-2819395107a8	("(""(""""(widget)"""",widget)"",id)",f7c257e3-b6b8-4acc-bfd0-b3210d36c092)
63e32799-746a-4fc2-b62f-93beff4e530e	2a848867-4e84-48cb-a0b7-16dab2a7a193	("(""(""""(endpoint)"""",resource)"",id)",9ed513fd-3078-4363-ac0d-d3c1b54b9918)
71df2eed-690b-41e8-96f9-52f8942fb9d2	2a848867-4e84-48cb-a0b7-16dab2a7a193	("(""(""""(widget)"""",widget)"",id)",3998ae5b-6c23-4ea3-959f-e0eb3c3e8cda)
30c47dbf-9ad8-4c48-a401-ec8869299cc8	2a848867-4e84-48cb-a0b7-16dab2a7a193	("(""(""""(widget)"""",widget)"",id)",70239d80-cd33-4dc7-94d2-ec6d603d5b26)
47fdbfaf-ee3e-4bfd-a9b9-4abed428124c	2a848867-4e84-48cb-a0b7-16dab2a7a193	("(""(""""(widget)"""",widget)"",id)",c7f79427-7f81-4b25-a25f-b58d37d5e2ce)
796bad16-328a-4a61-9841-384e4b46e3cc	2a848867-4e84-48cb-a0b7-16dab2a7a193	("(""(""""(widget)"""",widget)"",id)",f7c257e3-b6b8-4acc-bfd0-b3210d36c092)
855fec9f-40a7-4c70-bb26-ae78a3fdedf4	99e59747-b019-4c85-80a4-f36dd7d10a6e	("(""(""""(endpoint)"""",resource)"",id)",9ed513fd-3078-4363-ac0d-d3c1b54b9918)
6aaa42c2-038a-4e3d-a470-0c21d45b4d1c	99e59747-b019-4c85-80a4-f36dd7d10a6e	("(""(""""(widget)"""",widget)"",id)",3998ae5b-6c23-4ea3-959f-e0eb3c3e8cda)
9c6516a0-9419-4a2c-88f7-47c5406b0184	99e59747-b019-4c85-80a4-f36dd7d10a6e	("(""(""""(widget)"""",widget)"",id)",70239d80-cd33-4dc7-94d2-ec6d603d5b26)
d59d3255-8e09-478c-a978-88723a6393f5	99e59747-b019-4c85-80a4-f36dd7d10a6e	("(""(""""(widget)"""",widget)"",id)",7a80f7f6-28ad-45e9-bf7f-57d678c0230f)
e265be86-abf6-421e-b05d-3381483e5827	99e59747-b019-4c85-80a4-f36dd7d10a6e	("(""(""""(widget)"""",widget)"",id)",c7f79427-7f81-4b25-a25f-b58d37d5e2ce)
93049920-4fd6-458d-8d59-9c51caa579d4	99e59747-b019-4c85-80a4-f36dd7d10a6e	("(""(""""(widget)"""",widget)"",id)",f7c257e3-b6b8-4acc-bfd0-b3210d36c092)
cff599ba-bcc8-457c-bfcd-ce8aab420dd9	23f98713-f9e3-443f-a986-7e52c49e8014	("(""(""""(endpoint)"""",resource)"",id)",9ed513fd-3078-4363-ac0d-d3c1b54b9918)
f130a4b9-4a57-4cd9-995c-02bf55f04f96	23f98713-f9e3-443f-a986-7e52c49e8014	("(""(""""(widget)"""",widget)"",id)",3998ae5b-6c23-4ea3-959f-e0eb3c3e8cda)
27002b4a-b733-4302-b1b1-38086c4fb456	23f98713-f9e3-443f-a986-7e52c49e8014	("(""(""""(widget)"""",widget)"",id)",70239d80-cd33-4dc7-94d2-ec6d603d5b26)
a26f5163-0446-40db-a73b-175d485dcaf8	23f98713-f9e3-443f-a986-7e52c49e8014	("(""(""""(widget)"""",widget)"",id)",7a80f7f6-28ad-45e9-bf7f-57d678c0230f)
c3c7517d-85fc-41e1-8daa-515624ebc156	23f98713-f9e3-443f-a986-7e52c49e8014	("(""(""""(widget)"""",widget)"",id)",c7f79427-7f81-4b25-a25f-b58d37d5e2ce)
8c8fa6aa-5ed1-4d97-978f-d35b11533e4c	23f98713-f9e3-443f-a986-7e52c49e8014	("(""(""""(widget)"""",widget)"",id)",f7c257e3-b6b8-4acc-bfd0-b3210d36c092)
3d30a028-4e83-4c4d-8615-80f0923eb68b	14a3adfc-19fd-40c6-9971-52e0ba5e1e48	("(""(""""(endpoint)"""",resource)"",id)",9ed513fd-3078-4363-ac0d-d3c1b54b9918)
48dc5728-9ee5-4c6d-9542-d1cc0efbb94f	14a3adfc-19fd-40c6-9971-52e0ba5e1e48	("(""(""""(widget)"""",widget)"",id)",3998ae5b-6c23-4ea3-959f-e0eb3c3e8cda)
be59c286-9d58-4f47-8670-56bfff77d941	14a3adfc-19fd-40c6-9971-52e0ba5e1e48	("(""(""""(widget)"""",widget)"",id)",70239d80-cd33-4dc7-94d2-ec6d603d5b26)
a618b9a7-210f-4081-8ee6-00ac8eed8259	14a3adfc-19fd-40c6-9971-52e0ba5e1e48	("(""(""""(widget)"""",widget)"",id)",7a80f7f6-28ad-45e9-bf7f-57d678c0230f)
c4338c5f-52a3-4587-a41e-76146074c0ea	14a3adfc-19fd-40c6-9971-52e0ba5e1e48	("(""(""""(widget)"""",widget)"",id)",c7f79427-7f81-4b25-a25f-b58d37d5e2ce)
4e97a9b8-cdec-449d-9330-1098e6408e85	14a3adfc-19fd-40c6-9971-52e0ba5e1e48	("(""(""""(widget)"""",widget)"",id)",f7c257e3-b6b8-4acc-bfd0-b3210d36c092)
